…
glm_results <- tune_grid(
    glm_wf,
    folds,
    metrics = metric_set(rmse), 
    grid = glm_grid)

glm_results %>% collect_metrics() %>% arrange(mean)
```

    ## # A tibble: 50 x 10
    ##     penalty mixture threshold max_tokens .metric .estimator  mean     n std_err .config              
    ##       <dbl>   <dbl>     <dbl>      <int> <chr>   <chr>      <dbl> <int>   <dbl> <chr>                
    ##  1 1.26e- 6   0.850   0.0724        1261 rmse    standard   0.291    10  0.0308 Preprocessor44_Model1
    ##  2 3.31e- 6   0.650   0.0622        1314 rmse    standard   0.292    10  0.0288 Preprocessor20_Model1
    ##  3 5.18e- 5   0.273   0.00499       1271 rmse    standard   0.299    10  0.0252 Preprocessor19_Model1
    ##  4 2.19e- 2   0.197   0.0158        1366 rmse    standard   0.305    10  0.0215 Preprocessor28_Model1
    ##  5 5.76e- 4   0.895   0.00943       1562 rmse    standard   0.306    10  0.0199 Preprocessor12_Model1
    ##  6 9.65e- 6   0.779   0.0936        1159 rmse    standard   0.311    10  0.0200 Preprocessor02_Model1
    ##  7 1.68e- 4   0.740   0.0541         941 rmse    standard   0.311    10  0.0232 Preprocessor47_Model1
    ##  8 1.33e-10   0.172   0.0142        1144 rmse    standard   0.317    10  0.0167 Preprocessor29_Model1
    ##  9 2.33e- 9   0.334   0.0898        1178 rmse    standard   0.320    10  0.0210 Preprocessor11_Model1
    ## 10 7.37e- 4   0.221   0.0982        1566 rmse    standard   0.320    10  0.0196 Preprocessor43_Model1
    ## # ... with 40 more rows
…
svm_results <- tune_grid(
  svm_wf,
  folds,
  metrics = metric_set(rmse), 
  grid = svm_grid
)

svm_results %>% collect_metrics() %>% arrange(mean)
```

    ## # A tibble: 50 x 11
    ##      cost  rbf_sigma margin threshold max_tokens .metric .estimator  mean     n std_err .config              
    ##     <dbl>      <dbl>  <dbl>     <dbl>      <int> <chr>   <chr>      <dbl> <int>   <dbl> <chr>                
    ##  1 18.6   0.0000240  0.0673    0.0480       1536 rmse    standard   0.339    10  0.0235 Preprocessor50_Model1
    ##  2  7.97  0.0000896  0.0863    0.0768       1927 rmse    standard   0.344    10  0.0227 Preprocessor06_Model1
    ##  3  2.37  0.00172    0.0996    0.0251        377 rmse    standard   0.367    10  0.0269 Preprocessor38_Model1
    ##  4 15.5   0.00101    0.0123    0.0432       1737 rmse    standard   0.393    10  0.0244 Preprocessor25_Model1
    ##  5 23.3   0.00654    0.0874    0.0482        298 rmse    standard   0.396    10  0.0248 Preprocessor33_Model1
    ##  6 11.0   0.0000299  0.190     0.0675        442 rmse    standard   0.398    10  0.0237 Preprocessor23_Model1
    ##  7  1.40  0.00361    0.0749    0.0170        856 rmse    standard   0.411    10  0.0243 Preprocessor27_Model1
    ##  8  9.01  0.00000534 0.0481    0.0327       1815 rmse    standard   0.411    10  0.0234 Preprocessor48_Model1
    ##  9  0.632 0.00184    0.108     0.0160       1292 rmse    standard   0.414    10  0.0244 Preprocessor47_Model1
    ## 10 17.6   0.00611    0.183     0.0613        837 rmse    standard   0.417    10  0.0241 Preprocessor45_Model1
    ## # ... with 40 more rows
…
